00000000 00000000
00000001 00000000
00000002 000000db
00000003 00000074
00000004 000000a8
00000005 00000058
00000006 0000007d
00000007 00000020
00000008 000000ff
00000009 00000000
0000000a 00000000
0000000b 00000021
0000000c 00000000
0000000d 000000fc
0000000e 0000000d
0000000f 000000cd
00000010 000000f9
00000011 000000e0
00000012 00000093
00000013 00000077
00000014 000000b4
00000015 000000a4
00000016 00000069
00000017 0000008e
00000018 00000066
00000019 00000052
0000001a 000000ff
0000001b 00000083
0000001c 00000091
0000001d 000000a2
0000001e 00000032
0000001f 00000043
